{
  "config": {
    "title": "Mspr",
    "description": "My awesome app using docz",
    "menu": [],
    "version": "0.1.0",
    "repository": null,
    "native": false,
    "themeConfig": {},
    "separator": "-"
  },
  "entries": [
    {
      "key": "README.md",
      "value": {
        "id": "04c6e90faac2675aa89e2176d2eec7d8",
        "filepath": "README.md",
        "fullpath": "D:\\EPSI\\i1\\MSPR_IntegrationContinue\\sandbox\\README.md",
        "link": "",
        "hidden": false,
        "slug": "readme",
        "route": "/readme",
        "name": "Readme",
        "menu": "",
        "headings": [
          {
            "slug": "getting-started-with-create-react-app",
            "depth": 1,
            "value": "Getting Started with Create React App"
          },
          {
            "slug": "available-scripts",
            "depth": 2,
            "value": "Available Scripts"
          },
          {
            "slug": "npm-start",
            "depth": 3,
            "value": "npm start"
          },
          {
            "slug": "npm-test",
            "depth": 3,
            "value": "npm test"
          },
          {
            "slug": "npm-run-build",
            "depth": 3,
            "value": "npm run build"
          },
          {
            "slug": "npm-run-eject",
            "depth": 3,
            "value": "npm run eject"
          },
          {
            "slug": "learn-more",
            "depth": 2,
            "value": "Learn More"
          },
          {
            "slug": "code-splitting",
            "depth": 3,
            "value": "Code Splitting"
          },
          {
            "slug": "analyzing-the-bundle-size",
            "depth": 3,
            "value": "Analyzing the Bundle Size"
          },
          {
            "slug": "making-a-progressive-web-app",
            "depth": 3,
            "value": "Making a Progressive Web App"
          },
          {
            "slug": "advanced-configuration",
            "depth": 3,
            "value": "Advanced Configuration"
          },
          {
            "slug": "deployment",
            "depth": 3,
            "value": "Deployment"
          },
          {
            "slug": "npm-run-build-fails-to-minify",
            "depth": 3,
            "value": "npm run build  fails to minify"
          }
        ]
      }
    },
    {
      "key": "docs/Contributing.mdx",
      "value": {
        "name": "Contributing",
        "route": "/contributing",
        "id": "b51efe4bfa8b3527bbe24a2caf0d7bdd",
        "filepath": "docs/Contributing.mdx",
        "fullpath": "D:\\EPSI\\i1\\MSPR_IntegrationContinue\\sandbox\\docs\\Contributing.mdx",
        "link": "",
        "hidden": false,
        "slug": "docs-contributing",
        "menu": "",
        "headings": [
          {
            "slug": "contributing",
            "depth": 1,
            "value": "Contributing"
          }
        ]
      }
    },
    {
      "key": "docs/index.mdx",
      "value": {
        "name": "Get Started",
        "route": "/",
        "id": "73498ad0e1e62a714b08085d318f9de1",
        "filepath": "docs/index.mdx",
        "fullpath": "D:\\EPSI\\i1\\MSPR_IntegrationContinue\\sandbox\\docs\\index.mdx",
        "link": "",
        "hidden": false,
        "slug": "docs-index",
        "menu": "",
        "headings": [
          {
            "slug": "get-started",
            "depth": 1,
            "value": "Get Started"
          }
        ]
      }
    }
  ],
  "props": [
    {
      "key": "src/App.js",
      "value": [
        {
          "description": "",
          "displayName": "App",
          "methods": [],
          "actualName": "App"
        }
      ]
    },
    {
      "key": "src/_components/home.jsx",
      "value": [
        {
          "description": "",
          "displayName": "Home",
          "methods": [],
          "actualName": "Home"
        }
      ]
    }
  ]
}
